{
    "$schema": "https://colvis.vanhulst.one/specs/client.schema.json",
    "options": {
        "autocomplete": true,
        "unitsLimit": 3,
        "floating": true,
        "theme": "light"
    },
    "visualization": {
        "container": "#vis"
    },
    "natures": [
        {
            "id": "@/n/car",
            "name": "Car",
            "annotable": {
                "selector": "path",
                "filter": "annotable",
                "id": ["Name", "Miles_per_Gallon", "Year"],
                "title": ["Name", "Miles_per_Gallon", "Year"]
            }
        }
    ]
}