{
    "patterns": [
        {
            "verb": "stand out",
            "verbSolo": "stands out",
            "pattern": "singularity",
            "extended": true
        },
        {
            "verb": "are isolated",
            "verbSolo": "is isolated",
            "pattern": "singularity"
        },
        {
            "verb": "are central",
            "verbSolo": "is central",
            "pattern": "singularity",
            "extended": true
        },
        {
            "verb": "spread across the whole distribution",
            "verbSolo": "spreads across the whole distribution",
            "pattern": "pluarility"
        }
    ]    
}